…
```
## [1] "/Users/slharmer/R /R_club_RforDataScience/Rclub-r4ds_Stacey.Harmer/R-club-May-31"
```

## 10.  Tibbles

### 10.2  Creating Tibbles


```r
as_tibble(iris)
```

```
## # A tibble: 150 × 5
##    Sepal.Length Sepal.Width Petal.Length Petal.Width Species
##           <dbl>       <dbl>        <dbl>       <dbl>  <fctr>
## 1           5.1         3.5          1.4         0.2  setosa
## 2           4.9         3.0          1.4         0.2  setosa
## 3           4.7         3.2          1.3         0.2  setosa
## 4           4.6         3.1          1.5         0.2  setosa
## 5           5.0         3.6          1.4         0.2  setosa
## 6           5.4         3.9          1.7         0.4  setosa
## 7           4.6         3.4          1.4         0.3  setosa
## 8           5.0         3.4          1.5         0.2  setosa
## 9           4.4         2.9          1.4         0.2  setosa
## 10          4.9         3.1          1.5         0.1  setosa
## # ... with 140 more rows
```
…
A Tribble is a transposed tibble


```r
tibble(
  a = lubridate::now() + runif(1e3) * 86400,
  b = lubridate::today() + runif(1e3) * 30,
  c = 1:1e3,
  d = runif(1e3),
  e = sample(letters, 1e3, replace = TRUE)
)
```

```
## # A tibble: 1,000 × 5
##                      a          b     c          d     e
##                 <dttm>     <date> <int>      <dbl> <chr>
## 1  2017-05-30 20:11:01 2017-06-11     1 0.56082779     y
## 2  2017-05-29 23:52:51 2017-06-16     2 0.48996811     q
## 3  2017-05-30 00:43:32 2017-06-06     3 0.64778004     z
## 4  2017-05-30 20:33:06 2017-05-31     4 0.71619307     i
## 5  2017-05-30 09:52:48 2017-06-13     5 0.03721926     j
## 6  2017-05-30 08:39:06 2017-06-06     6 0.17936133     i
## 7  2017-05-30 20:52:02 2017-06-03     7 0.96699474     w
## 8  2017-05-30 10:19:17 2017-06-16     8 0.18761223     m
## 9  2017-05-30 05:20:19 2017-06-09     9 0.93857634     x
## 10 2017-05-30 01:40:17 2017-06-19    10 0.38325657     w
## # ... with 990 more rows
```
…
