Ch 12 - tidy data, part 2; Ch 13 - part 1
…
There is a big differnece between NA and 0 here! 0 suggests a measurement was made, while NA suggests not data are avialble so no conclusions can be made

Are there implicit missing values? Lets summarize by coutnry and year:

who5 %>% 
  group_by(country, year) %>%
  nrow()  # group by didn't seem to work

## [1] 76046

who5 %>% 
  group_by(country, year) %>%
  count() # that works, but 3,500 rows too many to look at

## Source: local data frame [3,484 x 3]
## Groups: country [?]
## 
##        country  year     n
##          <chr> <int> <int>
## 1  Afghanistan  1997    14
## 2  Afghanistan  1998    14
## 3  Afghanistan  1999    14
## 4  Afghanistan  2000    14
## 5  Afghanistan  2001    14
## 6  Afghanistan  2002    14
## 7  Afghanistan  2003    14
## 8  Afghanistan  2004    14
## 9  Afghanistan  2005    14
## 10 Afghanistan  2006    14
## # ... with 3,474 more rows
…
