…
## 12.6 Case study

First, gather columns that are not variables, and fix a key name


```r
who1 <- who %>% 
  gather(new_sp_m014:newrel_f65, key = "key", value = "cases", na.rm = TRUE)
who1
```

```
## # A tibble: 76,046 × 6
##        country  iso2  iso3  year         key cases
## *        <chr> <chr> <chr> <int>       <chr> <int>
## 1  Afghanistan    AF   AFG  1997 new_sp_m014     0
## 2  Afghanistan    AF   AFG  1998 new_sp_m014    30
## 3  Afghanistan    AF   AFG  1999 new_sp_m014     8
## 4  Afghanistan    AF   AFG  2000 new_sp_m014    52
## 5  Afghanistan    AF   AFG  2001 new_sp_m014   129
## 6  Afghanistan    AF   AFG  2002 new_sp_m014    90
## 7  Afghanistan    AF   AFG  2003 new_sp_m014   127
## 8  Afghanistan    AF   AFG  2004 new_sp_m014   139
## 9  Afghanistan    AF   AFG  2005 new_sp_m014   151
## 10 Afghanistan    AF   AFG  2006 new_sp_m014   193
## # ... with 76,036 more rows
```

```r
who1 %>%
  count(key)
```

```
## # A tibble: 56 × 2
##             key     n
##           <chr> <int>
## 1   new_ep_f014  1032
## 2  new_ep_f1524  1021
## 3  new_ep_f2534  1021
## 4  new_ep_f3544  1021
## 5  new_ep_f4554  1017
## 6  new_ep_f5564  1017
## 7    new_ep_f65  1014
## 8   new_ep_m014  1038
## 9  new_ep_m1524  1026
## 10 new_ep_m2534  1020
## # ... with 46 more rows
```

```r
who2 <- who1 %>% 
  mutate(key = stringr::str_replace(key, "newrel", "new_rel"))
who2
```

```
## # A tibble: 76,046 × 6
##        country  iso2  iso3  year         key cases
##          <chr> <chr> <chr> <int>       <chr> <int>
## 1  Afghanistan    AF   AFG  1997 new_sp_m014     0
## 2  Afghanistan    AF   AFG  1998 new_sp_m014    30
## 3  Afghanistan    AF   AFG  1999 new_sp_m014     8
## 4  Afghanistan    AF   AFG  2000 new_sp_m014    52
## 5  Afghanistan    AF   AFG  2001 new_sp_m014   129
## 6  Afghanistan    AF   AFG  2002 new_sp_m014    90
## 7  Afghanistan    AF   AFG  2003 new_sp_m014   127
## 8  Afghanistan    AF   AFG  2004 new_sp_m014   139
## 9  Afghanistan    AF   AFG  2005 new_sp_m014   151
## 10 Afghanistan    AF   AFG  2006 new_sp_m014   193
## # ... with 76,036 more rows
```

Then, split up the information in the 'key' codes


```r
who3 <- who2 %>% 
  separate(key, c("new", "type", "sexage"), sep = "_")
who3
```

```
## # A tibble: 76,046 × 8
##        country  iso2  iso3  year   new  type sexage cases
## *        <chr> <chr> <chr> <int> <chr> <chr>  <chr> <int>
## 1  Afghanistan    AF   AFG  1997   new    sp   m014     0
## 2  Afghanistan    AF   AFG  1998   new    sp   m014    30
## 3  Afghanistan    AF   AFG  1999   new    sp   m014     8
## 4  Afghanistan    AF   AFG  2000   new    sp   m014    52
## 5  Afghanistan    AF   AFG  2001   new    sp   m014   129
## 6  Afghanistan    AF   AFG  2002   new    sp   m014    90
## 7  Afghanistan    AF   AFG  2003   new    sp   m014   127
## 8  Afghanistan    AF   AFG  2004   new    sp   m014   139
## 9  Afghanistan    AF   AFG  2005   new    sp   m014   151
## 10 Afghanistan    AF   AFG  2006   new    sp   m014   193
## # ... with 76,036 more rows
```

now drop redundant columns


```r
who4 <- who3 %>% 
  select(-new, -iso2, -iso3)
who4
```

```
## # A tibble: 76,046 × 5
##        country  year  type sexage cases
## *        <chr> <int> <chr>  <chr> <int>
## 1  Afghanistan  1997    sp   m014     0
## 2  Afghanistan  1998    sp   m014    30
## 3  Afghanistan  1999    sp   m014     8
## 4  Afghanistan  2000    sp   m014    52
## 5  Afghanistan  2001    sp   m014   129
## 6  Afghanistan  2002    sp   m014    90
## 7  Afghanistan  2003    sp   m014   127
## 8  Afghanistan  2004    sp   m014   139
## 9  Afghanistan  2005    sp   m014   151
## 10 Afghanistan  2006    sp   m014   193
## # ... with 76,036 more rows
```

And now split the sex and age info


```r
who5 <- who4 %>% 
  separate(sexage, c("sex", "age"), sep = 1)
who5
```

```
## # A tibble: 76,046 × 6
##        country  year  type   sex   age cases
## *        <chr> <int> <chr> <chr> <chr> <int>
## 1  Afghanistan  1997    sp     m   014     0
## 2  Afghanistan  1998    sp     m   014    30
## 3  Afghanistan  1999    sp     m   014     8
## 4  Afghanistan  2000    sp     m   014    52
## 5  Afghanistan  2001    sp     m   014   129
## 6  Afghanistan  2002    sp     m   014    90
## 7  Afghanistan  2003    sp     m   014   127
## 8  Afghanistan  2004    sp     m   014   139
## 9  Afghanistan  2005    sp     m   014   151
## 10 Afghanistan  2006    sp     m   014   193
## # ... with 76,036 more rows
```

Or, more elegantly:

```r
who %>%
  gather(code, value, new_sp_m014:newrel_f65, na.rm = TRUE) %>% 
  mutate(code = stringr::str_replace(code, "newrel", "new_rel")) %>%
  separate(code, c("new", "var", "sexage")) %>% 
  select(-new, -iso2, -iso3) %>% 
  separate(sexage, c("sex", "age"), sep = 1)
```

```
## # A tibble: 76,046 × 6
##        country  year   var   sex   age value
## *        <chr> <int> <chr> <chr> <chr> <int>
## 1  Afghanistan  1997    sp     m   014     0
## 2  Afghanistan  1998    sp     m   014    30
## 3  Afghanistan  1999    sp     m   014     8
## 4  Afghanistan  2000    sp     m   014    52
## 5  Afghanistan  2001    sp     m   014   129
## 6  Afghanistan  2002    sp     m   014    90
## 7  Afghanistan  2003    sp     m   014   127
## 8  Afghanistan  2004    sp     m   014   139
## 9  Afghanistan  2005    sp     m   014   151
## 10 Afghanistan  2006    sp     m   014   193
## # ... with 76,036 more rows
```
…
```
## [1] 76046
```

```r
who5 %>% 
  group_by(country, year) %>%
  count() # that works, but 3,500 rows too many to look at
```

```
## Source: local data frame [3,484 x 3]
## Groups: country [?]
## 
##        country  year     n
##          <chr> <int> <int>
## 1  Afghanistan  1997    14
## 2  Afghanistan  1998    14
## 3  Afghanistan  1999    14
## 4  Afghanistan  2000    14
## 5  Afghanistan  2001    14
## 6  Afghanistan  2002    14
## 7  Afghanistan  2003    14
## 8  Afghanistan  2004    14
## 9  Afghanistan  2005    14
## 10 Afghanistan  2006    14
## # ... with 3,474 more rows
```
…
In that step, we fixed a code name that lacked an underscore


```r
# as given:
who %>%
  gather(code, value, new_sp_m014:newrel_f65, na.rm = TRUE) %>% 
  mutate(code = stringr::str_replace(code, "newrel", "new_rel")) %>%
  separate(code, c("new", "var", "sexage")) %>% 
  select(-new, -iso2, -iso3) %>% 
  separate(sexage, c("sex", "age"), sep = 1)
```

```
## # A tibble: 76,046 × 6
##        country  year   var   sex   age value
## *        <chr> <int> <chr> <chr> <chr> <int>
## 1  Afghanistan  1997    sp     m   014     0
## 2  Afghanistan  1998    sp     m   014    30
## 3  Afghanistan  1999    sp     m   014     8
## 4  Afghanistan  2000    sp     m   014    52
## 5  Afghanistan  2001    sp     m   014   129
## 6  Afghanistan  2002    sp     m   014    90
## 7  Afghanistan  2003    sp     m   014   127
## 8  Afghanistan  2004    sp     m   014   139
## 9  Afghanistan  2005    sp     m   014   151
## 10 Afghanistan  2006    sp     m   014   193
## # ... with 76,036 more rows
```
…
```r
airports #1,458
```

```
## # A tibble: 1,458 × 8
##      faa                           name      lat        lon   alt    tz
##    <chr>                          <chr>    <dbl>      <dbl> <int> <dbl>
## 1    04G              Lansdowne Airport 41.13047  -80.61958  1044    -5
## 2    06A  Moton Field Municipal Airport 32.46057  -85.68003   264    -6
## 3    06C            Schaumburg Regional 41.98934  -88.10124   801    -6
## 4    06N                Randall Airport 41.43191  -74.39156   523    -5
## 5    09J          Jekyll Island Airport 31.07447  -81.42778    11    -5
## 6    0A9 Elizabethton Municipal Airport 36.37122  -82.17342  1593    -5
## 7    0G6        Williams County Airport 41.46731  -84.50678   730    -5
## 8    0G7  Finger Lakes Regional Airport 42.88356  -76.78123   492    -5
## 9    0P2   Shoestring Aviation Airfield 39.79482  -76.64719  1000    -5
## 10   0S9          Jefferson County Intl 48.05381 -122.81064   108    -8
## # ... with 1,448 more rows, and 2 more variables: dst <chr>, tzone <chr>
```
…
```r
planes #3,322 numbers
```

```
## # A tibble: 3,322 × 9
##    tailnum  year                    type     manufacturer     model
##      <chr> <int>                   <chr>            <chr>     <chr>
## 1   N10156  2004 Fixed wing multi engine          EMBRAER EMB-145XR
## 2   N102UW  1998 Fixed wing multi engine AIRBUS INDUSTRIE  A320-214
## 3   N103US  1999 Fixed wing multi engine AIRBUS INDUSTRIE  A320-214
## 4   N104UW  1999 Fixed wing multi engine AIRBUS INDUSTRIE  A320-214
## 5   N10575  2002 Fixed wing multi engine          EMBRAER EMB-145LR
## 6   N105UW  1999 Fixed wing multi engine AIRBUS INDUSTRIE  A320-214
## 7   N107US  1999 Fixed wing multi engine AIRBUS INDUSTRIE  A320-214
## 8   N108UW  1999 Fixed wing multi engine AIRBUS INDUSTRIE  A320-214
## 9   N109UW  1999 Fixed wing multi engine AIRBUS INDUSTRIE  A320-214
## 10  N110UW  1999 Fixed wing multi engine AIRBUS INDUSTRIE  A320-214
## # ... with 3,312 more rows, and 4 more variables: engines <int>,
## #   seats <int>, speed <int>, engine <chr>
```

```r
weather #26,130 rows
```

```
## # A tibble: 26,130 × 15
##    origin  year month   day  hour  temp  dewp humid wind_dir wind_speed
##     <chr> <dbl> <dbl> <int> <int> <dbl> <dbl> <dbl>    <dbl>      <dbl>
## 1     EWR  2013     1     1     0 37.04 21.92 53.97      230   10.35702
## 2     EWR  2013     1     1     1 37.04 21.92 53.97      230   13.80936
## 3     EWR  2013     1     1     2 37.94 21.92 52.09      230   12.65858
## 4     EWR  2013     1     1     3 37.94 23.00 54.51      230   13.80936
## 5     EWR  2013     1     1     4 37.94 24.08 57.04      240   14.96014
## 6     EWR  2013     1     1     6 39.02 26.06 59.37      270   10.35702
## 7     EWR  2013     1     1     7 39.02 26.96 61.63      250    8.05546
## 8     EWR  2013     1     1     8 39.02 28.04 64.43      240   11.50780
## 9     EWR  2013     1     1     9 39.92 28.04 62.21      250   12.65858
## 10    EWR  2013     1     1    10 39.02 28.04 64.43      260   12.65858
## # ... with 26,120 more rows, and 5 more variables: wind_gust <dbl>,
## #   precip <dbl>, pressure <dbl>, visib <dbl>, time_hour <dttm>
```
…
airports - need faa, lat, lon
flights - need origin, dest 

actually, I think these are all direct so no need to worry about stops

#### 13.2.1.2 I forgot to draw the relationship between weather and airports. What is the relationship and how should it appear in the diagram?


```r
weather
```

```
## # A tibble: 26,130 × 15
##    origin  year month   day  hour  temp  dewp humid wind_dir wind_speed
##     <chr> <dbl> <dbl> <int> <int> <dbl> <dbl> <dbl>    <dbl>      <dbl>
## 1     EWR  2013     1     1     0 37.04 21.92 53.97      230   10.35702
## 2     EWR  2013     1     1     1 37.04 21.92 53.97      230   13.80936
## 3     EWR  2013     1     1     2 37.94 21.92 52.09      230   12.65858
## 4     EWR  2013     1     1     3 37.94 23.00 54.51      230   13.80936
## 5     EWR  2013     1     1     4 37.94 24.08 57.04      240   14.96014
## 6     EWR  2013     1     1     6 39.02 26.06 59.37      270   10.35702
## 7     EWR  2013     1     1     7 39.02 26.96 61.63      250    8.05546
## 8     EWR  2013     1     1     8 39.02 28.04 64.43      240   11.50780
## 9     EWR  2013     1     1     9 39.92 28.04 62.21      250   12.65858
## 10    EWR  2013     1     1    10 39.02 28.04 64.43      260   12.65858
## # ... with 26,120 more rows, and 5 more variables: wind_gust <dbl>,
## #   precip <dbl>, pressure <dbl>, visib <dbl>, time_hour <dttm>
```

```r
airports
```

```
## # A tibble: 1,458 × 8
##      faa                           name      lat        lon   alt    tz
##    <chr>                          <chr>    <dbl>      <dbl> <int> <dbl>
## 1    04G              Lansdowne Airport 41.13047  -80.61958  1044    -5
## 2    06A  Moton Field Municipal Airport 32.46057  -85.68003   264    -6
## 3    06C            Schaumburg Regional 41.98934  -88.10124   801    -6
## 4    06N                Randall Airport 41.43191  -74.39156   523    -5
## 5    09J          Jekyll Island Airport 31.07447  -81.42778    11    -5
## 6    0A9 Elizabethton Municipal Airport 36.37122  -82.17342  1593    -5
## 7    0G6        Williams County Airport 41.46731  -84.50678   730    -5
## 8    0G7  Finger Lakes Regional Airport 42.88356  -76.78123   492    -5
## 9    0P2   Shoestring Aviation Airfield 39.79482  -76.64719  1000    -5
## 10   0S9          Jefferson County Intl 48.05381 -122.81064   108    -8
## # ... with 1,448 more rows, and 2 more variables: dst <chr>, tzone <chr>
```
…
