…
now expand to the big list of coeffs

```r
sim1_dist <- function(a1, a2) {
  measure_distance(c(a1, a2), sim1)
}

models <- models %>% 
  mutate(dist = purrr::map2_dbl(a1, a2, sim1_dist))
models
```

```
## # A tibble: 250 × 3
##            a1          a2      dist
##         <dbl>       <dbl>     <dbl>
## 1    7.209987  4.17198936 16.009231
## 2   12.584311  4.81556449 24.957935
## 3   35.306505 -4.09313623 17.982441
## 4    5.891299  3.97150224 13.583866
## 5   29.031651 -1.87370030 11.917309
## 6    3.756869 -3.36590146 34.092714
## 7    8.444701  1.32888471  2.983225
## 8   23.199365 -1.80025154 11.480236
## 9   35.145920  2.50938036 33.536697
## 10 -13.394525 -0.09144168 30.114389
## # ... with 240 more rows
```
…
