DataTrans_part2_2017-05-10.Rmd
…
not_cancelled %>%
  group_by(year, month, day) %>%
  summarize(
    avg_delay1 = mean(arr_delay), 
    avg_delay2 = mean(arr_delay[arr_delay > 0])
  )

## Source: local data frame [365 x 5]
## Groups: year, month [?]
## 
##     year month   day avg_delay1 avg_delay2
##    <int> <int> <int>      <dbl>      <dbl>
## 1   2013     1     1 12.6510229   32.48156
## 2   2013     1     2 12.6928879   32.02991
## 3   2013     1     3  5.7333333   27.66087
## 4   2013     1     4 -1.9328194   28.30976
## 5   2013     1     5 -1.5258020   22.55882
## 6   2013     1     6  4.2364294   24.37270
## 7   2013     1     7 -4.9473118   27.76132
## 8   2013     1     8 -3.2275785   20.78909
## 9   2013     1     9 -0.2642777   25.63415
## 10  2013     1    10 -5.8988159   27.34545
## # ... with 355 more rows
…
Rank

not_cancelled %>%
  group_by(year, month, day) %>%
  mutate(r = min_rank(desc(dep_time))) %>%
  filter(r %in% range(r))

## Source: local data frame [770 x 20]
## Groups: year, month, day [365]
## 
##     year month   day dep_time sched_dep_time dep_delay arr_time
##    <int> <int> <int>    <int>          <int>     <dbl>    <int>
## 1   2013     1     1      517            515         2      830
## 2   2013     1     1     2356           2359        -3      425
## 3   2013     1     2       42           2359        43      518
## 4   2013     1     2     2354           2359        -5      413
## 5   2013     1     3       32           2359        33      504
## 6   2013     1     3     2349           2359       -10      434
## 7   2013     1     4       25           2359        26      505
## 8   2013     1     4     2358           2359        -1      429
## 9   2013     1     4     2358           2359        -1      436
## 10  2013     1     5       14           2359        15      503
## # ... with 760 more rows, and 13 more variables: sched_arr_time <int>,
## #   arr_delay <dbl>, carrier <chr>, flight <int>, tailnum <chr>,
## #   origin <chr>, dest <chr>, air_time <dbl>, distance <dbl>, hour <dbl>,
## #   minute <dbl>, time_hour <dttm>, r <int>
…
Proportion: note that when used with numeric functions, mean can tell you proportion

not_cancelled %>%
  group_by(year, month, day) %>%
  summarize(hour_perc = mean(arr_delay > 60))

## Source: local data frame [365 x 4]
## Groups: year, month [?]
## 
##     year month   day  hour_perc
##    <int> <int> <int>      <dbl>
## 1   2013     1     1 0.07220217
## 2   2013     1     2 0.08512931
## 3   2013     1     3 0.05666667
## 4   2013     1     4 0.03964758
## 5   2013     1     5 0.03486750
## 6   2013     1     6 0.04704463
## 7   2013     1     7 0.03333333
## 8   2013     1     8 0.02130045
## 9   2013     1     9 0.02015677
## 10  2013     1    10 0.01829925
## # ... with 355 more rows
…
per_year <- summarize(per_month, flights = sum(flights))
head(per_year, n = 2)

## # A tibble: 1  2
##    year flights
##   <int>   <int>
## 1  2013  336776

ungroup

daily %>%
  summarize(flights = n()) #summarized by flights per day

## Source: local data frame [365 x 4]
## Groups: year, month [?]
## 
##     year month   day flights
##    <int> <int> <int>   <int>
## 1   2013     1     1     842
## 2   2013     1     2     943
## 3   2013     1     3     914
## 4   2013     1     4     915
## 5   2013     1     5     720
## 6   2013     1     6     832
## 7   2013     1     7     933
## 8   2013     1     8     899
## 9   2013     1     9     902
## 10  2013     1    10     932
## # ... with 355 more rows
…
For each flight compute the proportion of the total delay for its destination. (I think I am supposed to figure out what fraction of the above total is due to each flight)

not_cancelled %>%
  group_by(dest) %>%
  mutate(
    flight_delay = sum(arr_delay),
    perc_tot_delay = arr_delay/sum(arr_delay)
  ) %>%
  select(year:day, arr_delay, carrier, flight, dest, flight_delay, perc_tot_delay) %>%
  arrange(desc(perc_tot_delay))

## Source: local data frame [327,346 x 9]
## Groups: dest [104]
## 
##     year month   day arr_delay carrier flight  dest flight_delay
##    <int> <int> <int>     <dbl>   <chr>  <int> <chr>        <dbl>
## 1   2013     3    30       101      UA    385   MTJ           25
## 2   2013     7    27       -47      UA    887   ANC          -20
## 3   2013    12    19       847      DL   1223   SLC          432
## 4   2013     5    13       -70      B6    217   LGB          -41
## 5   2013     8    27       -66      B6   1013   LGB          -41
## 6   2013     8    10       -31      UA    887   ANC          -20
## 7   2013     7    14       -62      B6   1013   LGB          -41
## 8   2013    11    13       -59      B6   1013   LGB          -41
## 9   2013     3    16        43      UA    441   HDN           30
## 10  2013     1     3       -56      B6    217   LGB          -41
## # ... with 327,336 more rows, and 1 more variables: perc_tot_delay <dbl>
…
5.7.7 Find all destinations flown by at least 2 carriers. then rank the carriers (?)

not_cancelled %>%
  select(year:day, carrier, flight, tailnum, dest, arr_delay) %>%
  group_by(dest, carrier) %>%
  count(carrier) 

## Source: local data frame [312 x 3]
## Groups: dest [?]
## 
##     dest carrier     n
##    <chr>   <chr> <int>
## 1    ABQ      B6   254
## 2    ACK      B6   264
## 3    ALB      EV   418
## 4    ANC      UA     8
## 5    ATL      9E    56
## 6    ATL      DL 10452
## 7    ATL      EV  1656
## 8    ATL      FL  2278
## 9    ATL      MQ  2235
## 10   ATL      UA   102
## # ... with 302 more rows

# This tells me how many flights each carrier had to the given destinations

not_cancelled %>%
  select(year:day, carrier, flight, tailnum, dest, arr_delay) %>%
  group_by(dest, carrier) %>%
  count(carrier) %>%
  arrange(dest, desc(n))

## Source: local data frame [312 x 3]
## Groups: dest [104]
## 
##     dest carrier     n
##    <chr>   <chr> <int>
## 1    ABQ      B6   254
## 2    ACK      B6   264
## 3    ALB      EV   418
## 4    ANC      UA     8
## 5    ATL      DL 10452
## 6    ATL      FL  2278
## 7    ATL      MQ  2235
## 8    ATL      EV  1656
## 9    ATL      UA   102
## 10   ATL      WN    58
## # ... with 302 more rows
…
