…
```r
problems(challenge)
```

```
## # A tibble: 1,000 × 5
##      row   col               expected             actual
##    <int> <chr>                  <chr>              <chr>
## 1   1001     x no trailing characters .23837975086644292
## 2   1002     x no trailing characters .41167997173033655
## 3   1003     x no trailing characters  .7460716762579978
## 4   1004     x no trailing characters   .723450553836301
## 5   1005     x no trailing characters   .614524137461558
## 6   1006     x no trailing characters   .473980569280684
## 7   1007     x no trailing characters  .5784610391128808
## 8   1008     x no trailing characters  .2415937229525298
## 9   1009     x no trailing characters .11437866208143532
## 10  1010     x no trailing characters  .2983446326106787
## # ... with 990 more rows, and 1 more variables: file <chr>
```
…
```r
challenge2 <- read_csv(readr_example("challenge.csv"), 
  col_types = cols(.default = col_character())
)
challenge2
```

```
## # A tibble: 2,000 × 2
##        x     y
##    <chr> <chr>
## 1    404  <NA>
## 2   4172  <NA>
## 3   3004  <NA>
## 4    787  <NA>
## 5     37  <NA>
## 6   2332  <NA>
## 7   2489  <NA>
## 8   1449  <NA>
## 9   3665  <NA>
## 10  3863  <NA>
## # ... with 1,990 more rows
```

```r
type_convert(challenge2) # figured it out
```

```
## Parsed with column specification:
## cols(
##   x = col_double(),
##   y = col_date(format = "")
## )
```

```
## # A tibble: 2,000 × 2
##        x      y
##    <dbl> <date>
## 1    404   <NA>
## 2   4172   <NA>
## 3   3004   <NA>
## 4    787   <NA>
## 5     37   <NA>
## 6   2332   <NA>
## 7   2489   <NA>
## 8   1449   <NA>
## 9   3665   <NA>
## 10  3863   <NA>
## # ... with 1,990 more rows
```
…
