Rclub_June28_Ch13
…
Lahman::Batting %>% 
  count(playerID, yearID, stint) %>% 
  filter(n > 1)  # that is unique

## Source: local data frame [0 x 4]
## Groups: playerID, yearID [0]
## 
## # ... with 4 variables: playerID <chr>, yearID <int>, stint <int>, n <int>

Lahman::Batting %>% 
  count(playerID, yearID, teamID) %>% 
  filter(n > 1)  # not unique

## Source: local data frame [56 x 4]
## Groups: playerID, yearID [56]
## 
##     playerID yearID teamID     n
##        <chr>  <int> <fctr> <int>
## 1  anderjo01   1898    BRO     2
## 2  baldwja01   2005    BAL     2
## 3  behrmha01   1947    BRO     2
## 4  clarkje02   2003    TEX     2
## 5  clarkni01   1905    CLE     2
## 6  cranddo01   1913    NY1     2
## 7  cranesa01   1890    NY1     2
## 8  donahpa01   1910    PHA     2
## 9  drillle01   1902    WS1     2
## 10 duceyro01   2000    PHI     2
## # ... with 46 more rows
…
# I'm guessing year, sex, name must all be combined to be unique
babynames %>%
  count(year, name) %>%
  filter(nn > 1)  #163,000 rows!

## Source: local data frame [163,187 x 3]
## Groups: year [136]
## 
##     year    name    nn
##    <dbl>   <chr> <int>
## 1   1880   Addie     2
## 2   1880   Allie     2
## 3   1880    Alma     2
## 4   1880   Alpha     2
## 5   1880    Alva     2
## 6   1880    Anna     2
## 7   1880   Annie     2
## 8   1880  Arthur     2
## 9   1880   Artie     2
## 10  1880 Augusta     2
## # ... with 163,177 more rows
…
## # A tibble: 6  10
##   carat       cut color clarity depth table price     x     y     z
##   <dbl>     <ord> <ord>   <ord> <dbl> <dbl> <int> <dbl> <dbl> <dbl>
## 1  0.23     Ideal     E     SI2  61.5    55   326  3.95  3.98  2.43
## 2  0.21   Premium     E     SI1  59.8    61   326  3.89  3.84  2.31
## 3  0.23      Good     E     VS1  56.9    65   327  4.05  4.07  2.31
## 4  0.29   Premium     I     VS2  62.4    58   334  4.20  4.23  2.63
## 5  0.31      Good     J     SI2  63.3    58   335  4.34  4.35  2.75
## 6  0.24 Very Good     J    VVS2  62.8    57   336  3.94  3.96  2.48

diamonds %>%
  count(carat, cut, color) %>%
  filter( n > 1) # not unique

## Source: local data frame [3,536 x 4]
## Groups: carat, cut [816]
## 
##    carat     cut color     n
##    <dbl>   <ord> <ord> <int>
## 1   0.20 Premium     D     2
## 2   0.20 Premium     E     5
## 3   0.20   Ideal     E     2
## 4   0.21 Premium     D     4
## 5   0.21 Premium     E     4
## 6   0.22 Premium     F     2
## 7   0.23    Good     D     3
## 8   0.23    Good     E    14
## 9   0.23    Good     F    11
## 10  0.23    Good     G     3
## # ... with 3,526 more rows

diamonds %>%
  count(carat, cut, color, clarity) %>%
  filter( n > 1)

## Source: local data frame [8,080 x 5]
## Groups: carat, cut, color [2,914]
## 
##    carat     cut color clarity     n
##    <dbl>   <ord> <ord>   <ord> <int>
## 1   0.20 Premium     D     VS2     2
## 2   0.20 Premium     E     VS2     4
## 3   0.20   Ideal     E     VS2     2
## 4   0.21 Premium     D     VS2     4
## 5   0.21 Premium     E     VS2     2
## 6   0.22 Premium     F     SI1     2
## 7   0.23    Good     D    VVS1     2
## 8   0.23    Good     E     VS1     3
## 9   0.23    Good     E    VVS2     5
## 10  0.23    Good     E    VVS1     5
## # ... with 8,070 more rows

diamonds %>%
  count(carat, cut, color, clarity, depth, table, price) %>%
  filter( n > 1) # still have 735 rows.  

## Source: local data frame [735 x 8]
## Groups: carat, cut, color, clarity, depth, table [552]
## 
##    carat       cut color clarity depth table price     n
##    <dbl>     <ord> <ord>   <ord> <dbl> <dbl> <int> <int>
## 1   0.23 Very Good     E     VS2  60.8    58   402     2
## 2   0.23 Very Good     E    VVS2  61.2    60   505     2
## 3   0.23 Very Good     E    VVS2  62.4    59   530     2
## 4   0.24 Very Good     E    VVS1  61.7    58   485     2
## 5   0.24 Very Good     G    VVS2  62.0    56   449     2
## 6   0.25 Very Good     F    VVS2  61.6    57   633     2
## 7   0.25   Premium     E    VVS2  62.5    59   576     2
## 8   0.25   Premium     E    VVS2  62.5    59   740     2
## 9   0.25     Ideal     E     VS2  62.1    57   535     2
## 10  0.26 Very Good     E    VVS2  63.0    58   597     2
## # ... with 725 more rows

diamonds %>%
  count(carat, cut, color, clarity, depth, table, price, x , y , z) %>%
  filter( n > 1)  # still have 143 rows.

## Source: local data frame [143 x 11]
## Groups: carat, cut, color, clarity, depth, table, price, x, y [143]
## 
##    carat       cut color clarity depth table price     x     y     z     n
##    <dbl>     <ord> <ord>   <ord> <dbl> <dbl> <int> <dbl> <dbl> <dbl> <int>
## 1   0.30      Good     J     VS1  63.4    57   394  4.23  4.26  2.69     2
## 2   0.30 Very Good     G     VS2  63.0    55   526  4.29  4.31  2.71     2
## 3   0.30 Very Good     J     VS1  63.4    57   506  4.26  4.23  2.69     2
## 4   0.30   Premium     D     SI1  62.2    58   709  4.31  4.28  2.67     2
## 5   0.30     Ideal     G     VS2  63.0    55   675  4.31  4.29  2.71     2
## 6   0.30     Ideal     G      IF  62.1    55   863  4.32  4.35  2.69     2
## 7   0.30     Ideal     H     SI1  62.2    57   450  4.26  4.29  2.66     2
## 8   0.30     Ideal     H     SI1  62.2    57   450  4.27  4.28  2.66     2
## 9   0.31      Good     D     SI1  63.5    56   571  4.29  4.31  2.73     2
## 10  0.31 Very Good     D     SI1  63.5    56   732  4.31  4.29  2.73     2
## # ... with 133 more rows
…
How can I select for 48 hour windows? I could calculate mean delay for each year, month,day, hour and then somehow do a sliding window over 48 rows.

If you need rolling aggregates (i.e.a sum computed over a rolling window), try the RcppRoll package."

library(RcppRoll) # roll_mean looks useful

# First, calculate mean delay for each hour

mean.delays <- flights %>%
  group_by(year, month, day, hour) %>%
summarize(mean_delay = mean(dep_delay, na.rm = T))

mean.delays #6,936 rows

## Source: local data frame [6,936 x 5]
## Groups: year, month, day [?]
## 
##     year month   day  hour mean_delay
##    <int> <int> <int> <dbl>      <dbl>
## 1   2013     1     1     5  0.5000000
## 2   2013     1     1     6  2.1568627
## 3   2013     1     1     7  3.5102041
## 4   2013     1     1     8  0.4482759
## 5   2013     1     1     9  5.3392857
## 6   2013     1     1    10  0.3333333
## 7   2013     1     1    11  3.1891892
## 8   2013     1     1    12  5.7500000
## 9   2013     1     1    13 20.3703704
## 10  2013     1     1    14 17.2500000
## # ... with 6,926 more rows
…
