…
```
## filter(): dplyr, stats
## lag():    dplyr, stats
```

```r
library(nycflights13)

planes # tailnum is primary key; everything else relates back to it
```

```
## # A tibble: 3,322 × 9
##    tailnum  year                    type     manufacturer     model
##      <chr> <int>                   <chr>            <chr>     <chr>
## 1   N10156  2004 Fixed wing multi engine          EMBRAER EMB-145XR
## 2   N102UW  1998 Fixed wing multi engine AIRBUS INDUSTRIE  A320-214
## 3   N103US  1999 Fixed wing multi engine AIRBUS INDUSTRIE  A320-214
## 4   N104UW  1999 Fixed wing multi engine AIRBUS INDUSTRIE  A320-214
## 5   N10575  2002 Fixed wing multi engine          EMBRAER EMB-145LR
## 6   N105UW  1999 Fixed wing multi engine AIRBUS INDUSTRIE  A320-214
## 7   N107US  1999 Fixed wing multi engine AIRBUS INDUSTRIE  A320-214
## 8   N108UW  1999 Fixed wing multi engine AIRBUS INDUSTRIE  A320-214
## 9   N109UW  1999 Fixed wing multi engine AIRBUS INDUSTRIE  A320-214
## 10  N110UW  1999 Fixed wing multi engine AIRBUS INDUSTRIE  A320-214
## # ... with 3,312 more rows, and 4 more variables: engines <int>,
## #   seats <int>, speed <int>, engine <chr>
```
…
```r
length(unique(planes$tailnum)) # 3322
```

```
## [1] 3322
```

```r
flights # tailnum is foreign; 
```

```
## # A tibble: 336,776 × 19
##     year month   day dep_time sched_dep_time dep_delay arr_time
##    <int> <int> <int>    <int>          <int>     <dbl>    <int>
## 1   2013     1     1      517            515         2      830
## 2   2013     1     1      533            529         4      850
## 3   2013     1     1      542            540         2      923
## 4   2013     1     1      544            545        -1     1004
## 5   2013     1     1      554            600        -6      812
## 6   2013     1     1      554            558        -4      740
## 7   2013     1     1      555            600        -5      913
## 8   2013     1     1      557            600        -3      709
## 9   2013     1     1      557            600        -3      838
## 10  2013     1     1      558            600        -2      753
## # ... with 336,766 more rows, and 12 more variables: sched_arr_time <int>,
## #   arr_delay <dbl>, carrier <chr>, flight <int>, tailnum <chr>,
## #   origin <chr>, dest <chr>, air_time <dbl>, distance <dbl>, hour <dbl>,
## #   minute <dbl>, time_hour <dttm>
```
…
```
## # A tibble: 0 × 2
## # ... with 2 variables: tailnum <chr>, n <int>
```

```r
flights %>% 
  count(tailnum) %>% 
  filter(n > 1)  # 3,873 × 2
```

```
## # A tibble: 3,873 × 2
##    tailnum     n
##      <chr> <int>
## 1   D942DN     4
## 2   N0EGMQ   371
## 3   N10156   153
## 4   N102UW    48
## 5   N103US    46
## 6   N104UW    47
## 7   N10575   289
## 8   N105UW    45
## 9   N107US    41
## 10  N108UW    60
## # ... with 3,863 more rows
```
…
```
## Source: local data frame [0 x 4]
## Groups: playerID, yearID [0]
## 
## # ... with 4 variables: playerID <chr>, yearID <int>, stint <int>, n <int>
```

```r
Lahman::Batting %>% 
  count(playerID, yearID, teamID) %>% 
  filter(n > 1)  # not unique
```

```
## Source: local data frame [56 x 4]
## Groups: playerID, yearID [56]
## 
##     playerID yearID teamID     n
##        <chr>  <int> <fctr> <int>
## 1  anderjo01   1898    BRO     2
## 2  baldwja01   2005    BAL     2
## 3  behrmha01   1947    BRO     2
## 4  clarkje02   2003    TEX     2
## 5  clarkni01   1905    CLE     2
## 6  cranddo01   1913    NY1     2
## 7  cranesa01   1890    NY1     2
## 8  donahpa01   1910    PHA     2
## 9  drillle01   1902    WS1     2
## 10 duceyro01   2000    PHI     2
## # ... with 46 more rows
```
…
```r
diamonds %>%
  count(carat, cut, color) %>%
  filter( n > 1) # not unique
```

```
## Source: local data frame [3,536 x 4]
## Groups: carat, cut [816]
## 
##    carat     cut color     n
##    <dbl>   <ord> <ord> <int>
## 1   0.20 Premium     D     2
## 2   0.20 Premium     E     5
## 3   0.20   Ideal     E     2
## 4   0.21 Premium     D     4
## 5   0.21 Premium     E     4
## 6   0.22 Premium     F     2
## 7   0.23    Good     D     3
## 8   0.23    Good     E    14
## 9   0.23    Good     F    11
## 10  0.23    Good     G     3
## # ... with 3,526 more rows
```

```r
diamonds %>%
  count(carat, cut, color, clarity) %>%
  filter( n > 1)
```

```
## Source: local data frame [8,080 x 5]
## Groups: carat, cut, color [2,914]
## 
##    carat     cut color clarity     n
##    <dbl>   <ord> <ord>   <ord> <int>
## 1   0.20 Premium     D     VS2     2
## 2   0.20 Premium     E     VS2     4
## 3   0.20   Ideal     E     VS2     2
## 4   0.21 Premium     D     VS2     4
## 5   0.21 Premium     E     VS2     2
## 6   0.22 Premium     F     SI1     2
## 7   0.23    Good     D    VVS1     2
## 8   0.23    Good     E     VS1     3
## 9   0.23    Good     E    VVS2     5
## 10  0.23    Good     E    VVS1     5
## # ... with 8,070 more rows
```

```r
diamonds %>%
  count(carat, cut, color, clarity, depth, table, price) %>%
  filter( n > 1) # still have 735 rows.  
```

```
## Source: local data frame [735 x 8]
## Groups: carat, cut, color, clarity, depth, table [552]
## 
##    carat       cut color clarity depth table price     n
##    <dbl>     <ord> <ord>   <ord> <dbl> <dbl> <int> <int>
## 1   0.23 Very Good     E     VS2  60.8    58   402     2
## 2   0.23 Very Good     E    VVS2  61.2    60   505     2
## 3   0.23 Very Good     E    VVS2  62.4    59   530     2
## 4   0.24 Very Good     E    VVS1  61.7    58   485     2
## 5   0.24 Very Good     G    VVS2  62.0    56   449     2
## 6   0.25 Very Good     F    VVS2  61.6    57   633     2
## 7   0.25   Premium     E    VVS2  62.5    59   576     2
## 8   0.25   Premium     E    VVS2  62.5    59   740     2
## 9   0.25     Ideal     E     VS2  62.1    57   535     2
## 10  0.26 Very Good     E    VVS2  63.0    58   597     2
## # ... with 725 more rows
```

```r
diamonds %>%
  count(carat, cut, color, clarity, depth, table, price, x , y , z) %>%
  filter( n > 1)  # still have 143 rows.
```

```
## Source: local data frame [143 x 11]
## Groups: carat, cut, color, clarity, depth, table, price, x, y [143]
## 
##    carat       cut color clarity depth table price     x     y     z     n
##    <dbl>     <ord> <ord>   <ord> <dbl> <dbl> <int> <dbl> <dbl> <dbl> <int>
## 1   0.30      Good     J     VS1  63.4    57   394  4.23  4.26  2.69     2
## 2   0.30 Very Good     G     VS2  63.0    55   526  4.29  4.31  2.71     2
## 3   0.30 Very Good     J     VS1  63.4    57   506  4.26  4.23  2.69     2
## 4   0.30   Premium     D     SI1  62.2    58   709  4.31  4.28  2.67     2
## 5   0.30     Ideal     G     VS2  63.0    55   675  4.31  4.29  2.71     2
## 6   0.30     Ideal     G      IF  62.1    55   863  4.32  4.35  2.69     2
## 7   0.30     Ideal     H     SI1  62.2    57   450  4.26  4.29  2.66     2
## 8   0.30     Ideal     H     SI1  62.2    57   450  4.27  4.28  2.66     2
## 9   0.31      Good     D     SI1  63.5    56   571  4.29  4.31  2.73     2
## 10  0.31 Very Good     D     SI1  63.5    56   732  4.31  4.29  2.73     2
## # ... with 133 more rows
```
…
```
## # A tibble: 2 × 10
##   carat   cut color clarity depth table price     x     y     z
##   <dbl> <ord> <ord>   <ord> <dbl> <dbl> <int> <dbl> <dbl> <dbl>
## 1   0.3  Good     J     VS1  63.4    57   394  4.23  4.26  2.69
## 2   0.3  Good     J     VS1  63.4    57   394  4.23  4.26  2.69
```

```r
# These entries look hte same to me.  Nots sure whey they are listed twice
diamonds # A tibble: 53,940 × 10
```

```
## # A tibble: 53,940 × 10
##    carat       cut color clarity depth table price     x     y     z
##    <dbl>     <ord> <ord>   <ord> <dbl> <dbl> <int> <dbl> <dbl> <dbl>
## 1   0.23     Ideal     E     SI2  61.5    55   326  3.95  3.98  2.43
## 2   0.21   Premium     E     SI1  59.8    61   326  3.89  3.84  2.31
## 3   0.23      Good     E     VS1  56.9    65   327  4.05  4.07  2.31
## 4   0.29   Premium     I     VS2  62.4    58   334  4.20  4.23  2.63
## 5   0.31      Good     J     SI2  63.3    58   335  4.34  4.35  2.75
## 6   0.24 Very Good     J    VVS2  62.8    57   336  3.94  3.96  2.48
## 7   0.24 Very Good     I    VVS1  62.3    57   336  3.95  3.98  2.47
## 8   0.26 Very Good     H     SI1  61.9    55   337  4.07  4.11  2.53
## 9   0.22      Fair     E     VS2  65.1    61   337  3.87  3.78  2.49
## 10  0.23 Very Good     H     VS1  59.4    61   338  4.00  4.05  2.39
## # ... with 53,930 more rows
```

```r
unique(diamonds) # 53,794 × 10
```

```
## # A tibble: 53,794 × 10
##    carat       cut color clarity depth table price     x     y     z
##    <dbl>     <ord> <ord>   <ord> <dbl> <dbl> <int> <dbl> <dbl> <dbl>
## 1   0.23     Ideal     E     SI2  61.5    55   326  3.95  3.98  2.43
## 2   0.21   Premium     E     SI1  59.8    61   326  3.89  3.84  2.31
## 3   0.23      Good     E     VS1  56.9    65   327  4.05  4.07  2.31
## 4   0.29   Premium     I     VS2  62.4    58   334  4.20  4.23  2.63
## 5   0.31      Good     J     SI2  63.3    58   335  4.34  4.35  2.75
## 6   0.24 Very Good     J    VVS2  62.8    57   336  3.94  3.96  2.48
## 7   0.24 Very Good     I    VVS1  62.3    57   336  3.95  3.98  2.47
## 8   0.26 Very Good     H     SI1  61.9    55   337  4.07  4.11  2.53
## 9   0.22      Fair     E     VS2  65.1    61   337  3.87  3.78  2.49
## 10  0.23 Very Good     H     VS1  59.4    61   338  4.00  4.05  2.39
## # ... with 53,784 more rows
```
…
These are parallel tibbles I think.  

## 13.4  Mutating joins

TO combine variables from 2 tables.


```r
flights2 <- flights %>% 
  select(year:day, hour, origin, dest, tailnum, carrier)
flights2
```

```
## # A tibble: 336,776 × 8
##     year month   day  hour origin  dest tailnum carrier
##    <int> <int> <int> <dbl>  <chr> <chr>   <chr>   <chr>
## 1   2013     1     1     5    EWR   IAH  N14228      UA
## 2   2013     1     1     5    LGA   IAH  N24211      UA
## 3   2013     1     1     5    JFK   MIA  N619AA      AA
## 4   2013     1     1     5    JFK   BQN  N804JB      B6
## 5   2013     1     1     6    LGA   ATL  N668DN      DL
## 6   2013     1     1     5    EWR   ORD  N39463      UA
## 7   2013     1     1     6    EWR   FLL  N516JB      B6
## 8   2013     1     1     6    LGA   IAD  N829AS      EV
## 9   2013     1     1     6    JFK   MCO  N593JB      B6
## 10  2013     1     1     6    LGA   ORD  N3ALAA      AA
## # ... with 336,766 more rows
```
…
```r
flights2 %>%
  select(-origin, -dest) %>% 
  left_join(airlines, by = "carrier")
```

```
## # A tibble: 336,776 × 7
##     year month   day  hour tailnum carrier                     name
##    <int> <int> <int> <dbl>   <chr>   <chr>                    <chr>
## 1   2013     1     1     5  N14228      UA    United Air Lines Inc.
## 2   2013     1     1     5  N24211      UA    United Air Lines Inc.
## 3   2013     1     1     5  N619AA      AA   American Airlines Inc.
## 4   2013     1     1     5  N804JB      B6          JetBlue Airways
## 5   2013     1     1     6  N668DN      DL     Delta Air Lines Inc.
## 6   2013     1     1     5  N39463      UA    United Air Lines Inc.
## 7   2013     1     1     6  N516JB      B6          JetBlue Airways
## 8   2013     1     1     6  N829AS      EV ExpressJet Airlines Inc.
## 9   2013     1     1     6  N593JB      B6          JetBlue Airways
## 10  2013     1     1     6  N3ALAA      AA   American Airlines Inc.
## # ... with 336,766 more rows
```
…
```r
flights %>%
  left_join(weather)
```

```
## Joining, by = c("year", "month", "day", "origin", "hour", "time_hour")
```

```
## # A tibble: 336,776 × 28
##     year month   day dep_time sched_dep_time dep_delay arr_time
##    <dbl> <dbl> <int>    <int>          <int>     <dbl>    <int>
## 1   2013     1     1      517            515         2      830
## 2   2013     1     1      533            529         4      850
## 3   2013     1     1      542            540         2      923
## 4   2013     1     1      544            545        -1     1004
## 5   2013     1     1      554            600        -6      812
## 6   2013     1     1      554            558        -4      740
## 7   2013     1     1      555            600        -5      913
## 8   2013     1     1      557            600        -3      709
## 9   2013     1     1      557            600        -3      838
## 10  2013     1     1      558            600        -2      753
## # ... with 336,766 more rows, and 21 more variables: sched_arr_time <int>,
## #   arr_delay <dbl>, carrier <chr>, flight <int>, tailnum <chr>,
## #   origin <chr>, dest <chr>, air_time <dbl>, distance <dbl>, hour <dbl>,
## #   minute <dbl>, time_hour <dttm>, temp <dbl>, dewp <dbl>, humid <dbl>,
## #   wind_dir <dbl>, wind_speed <dbl>, wind_gust <dbl>, precip <dbl>,
## #   pressure <dbl>, visib <dbl>
```
…
```r
flights %>%
  group_by(dest) %>%
  summarize(avg.arr.del = mean(arr_delay, na.rm = T)) %>%
  right_join(airports, c("dest" = "faa")) %>%
  filter(avg.arr.del != "NA")
```

```
## # A tibble: 101 × 9
##     dest avg.arr.del                              name      lat        lon
##    <chr>       <dbl>                             <chr>    <dbl>      <dbl>
## 1    ABQ    4.381890 Albuquerque International Sunport 35.04022 -106.60919
## 2    ACK    4.852273                     Nantucket Mem 41.25305  -70.06018
## 3    ALB   14.397129                       Albany Intl 42.74827  -73.80169
## 4    ANC   -2.500000        Ted Stevens Anchorage Intl 61.17436 -149.99636
## 5    ATL   11.300113   Hartsfield Jackson Atlanta Intl 33.63672  -84.42807
## 6    AUS    6.019909             Austin Bergstrom Intl 30.19453  -97.66989
## 7    AVL    8.003831        Asheville Regional Airport 35.43619  -82.54181
## 8    BDL    7.048544                      Bradley Intl 41.93889  -72.68322
## 9    BGR    8.027933                       Bangor Intl 44.80744  -68.82814
## 10   BHM   16.877323                   Birmingham Intl 33.56294  -86.75355
## # ... with 91 more rows, and 4 more variables: alt <int>, tz <dbl>,
## #   dst <chr>, tzone <chr>
```
…
